git:5.2.0
git-client:4.5.0
gitlab-plugin:1.7.16
p4:1.14.3
greenballs:1.15.1
cloudbees-credentials:3.3
cloudbees-folder:6.858.v898218f3609d
timestamper:1.26
build-timeout:1.31
authorize-project:1.7.1
matrix-auth:3.2.1
matrix-project:818.v7eb_e657db_924
job-dsl:1.86
configuration-as-code:1714.v09593e830cfa
config-file-provider:959.vcff671a_4518b_
credentials-binding:642.v737c34dea_6c2
workflow-basic-steps:1042.ve7b_140c4a_e0c
workflow-aggregator:596.v8c21c963d92d
workflow-multibranch:756.v891d88f2cd46
pipeline-utility-steps:2.16.0
pipeline-stage-view:2.33
slack:684.v833089650554
ssh-credentials:308.ve4497b_ccd8f4
saml:4.429.v9a_781a_61f1da_
docker-workflow:572.v950f58993843
kubernetes:4110.v2d7ceb_d59c53
kubernetes-cli:1.12.1
hashicorp-vault-plugin:361.v44fea_4fc08d9
sonar:2.16
sonar-quality-gates:1.3.1
